{
	"source": "UE",
	"applications": [
		{
			"app_key": "application.generated.ue.third-person-bp-game-template-13942748.ue4editor.exe",
			"launch_type": "url",
			"url": "steam://launch/",
			"action_manifest_path": "E:/Projects/Skillbox/Config/SteamVRBindings/steamvr_manifest.json",
			"strings":
			{
				"en_us":
				{
					"name": "Third Person BP Game Template-13942748 [UE Editor]"
				}
			}
		}
	]
}